…
    ## v ggplot2 3.3.3     v purrr   0.3.4
    ## v tibble  3.1.0     v dplyr   1.0.5
    ## v tidyr   1.1.3     v stringr 1.4.0
    ## v readr   1.4.0     v forcats 0.5.1

    ## -- Conflicts ------------------------------------------ tidyverse_conflicts() --
    ## x dplyr::filter() masks stats::filter()
    ## x dplyr::lag()    masks stats::lag()

``` r
print(flights)
```

    ## # A tibble: 336,776 x 19
    ##     year month   day dep_time sched_dep_time dep_delay arr_time sched_arr_time
    ##    <int> <int> <int>    <int>          <int>     <dbl>    <int>          <int>
    ##  1  2013     1     1      517            515         2      830            819
    ##  2  2013     1     1      533            529         4      850            830
    ##  3  2013     1     1      542            540         2      923            850
    ##  4  2013     1     1      544            545        -1     1004           1022
    ##  5  2013     1     1      554            600        -6      812            837
    ##  6  2013     1     1      554            558        -4      740            728
    ##  7  2013     1     1      555            600        -5      913            854
    ##  8  2013     1     1      557            600        -3      709            723
    ##  9  2013     1     1      557            600        -3      838            846
    ## 10  2013     1     1      558            600        -2      753            745
    ## # ... with 336,766 more rows, and 11 more variables: arr_delay <dbl>,
    ## #   carrier <chr>, flight <int>, tailnum <chr>, origin <chr>, dest <chr>,
    ## #   air_time <dbl>, distance <dbl>, hour <dbl>, minute <dbl>, time_hour <dttm>
…
## Select

특정 열을 선택해주는 함수

용법 : select(dataframe, columns(벡터로 입력해도 되고, 하나의 값으로
입력가능하고, :이나 - 사용 가능))

``` r
select(flights, year, month, day)
```

    ## # A tibble: 336,776 x 3
    ##     year month   day
    ##    <int> <int> <int>
    ##  1  2013     1     1
    ##  2  2013     1     1
    ##  3  2013     1     1
    ##  4  2013     1     1
    ##  5  2013     1     1
    ##  6  2013     1     1
    ##  7  2013     1     1
    ##  8  2013     1     1
    ##  9  2013     1     1
    ## 10  2013     1     1
    ## # ... with 336,766 more rows

``` r
select(flights, c(year, month, day))
```

    ## # A tibble: 336,776 x 3
    ##     year month   day
    ##    <int> <int> <int>
    ##  1  2013     1     1
    ##  2  2013     1     1
    ##  3  2013     1     1
    ##  4  2013     1     1
    ##  5  2013     1     1
    ##  6  2013     1     1
    ##  7  2013     1     1
    ##  8  2013     1     1
    ##  9  2013     1     1
    ## 10  2013     1     1
    ## # ... with 336,766 more rows

``` r
select(flights, year:day)
```

    ## # A tibble: 336,776 x 3
    ##     year month   day
    ##    <int> <int> <int>
    ##  1  2013     1     1
    ##  2  2013     1     1
    ##  3  2013     1     1
    ##  4  2013     1     1
    ##  5  2013     1     1
    ##  6  2013     1     1
    ##  7  2013     1     1
    ##  8  2013     1     1
    ##  9  2013     1     1
    ## 10  2013     1     1
    ## # ... with 336,766 more rows

``` r
select(flights, -year)
```

    ## # A tibble: 336,776 x 18
    ##    month   day dep_time sched_dep_time dep_delay arr_time sched_arr_time
    ##    <int> <int>    <int>          <int>     <dbl>    <int>          <int>
    ##  1     1     1      517            515         2      830            819
    ##  2     1     1      533            529         4      850            830
    ##  3     1     1      542            540         2      923            850
    ##  4     1     1      544            545        -1     1004           1022
    ##  5     1     1      554            600        -6      812            837
    ##  6     1     1      554            558        -4      740            728
    ##  7     1     1      555            600        -5      913            854
    ##  8     1     1      557            600        -3      709            723
    ##  9     1     1      557            600        -3      838            846
    ## 10     1     1      558            600        -2      753            745
    ## # ... with 336,766 more rows, and 11 more variables: arr_delay <dbl>,
    ## #   carrier <chr>, flight <int>, tailnum <chr>, origin <chr>, dest <chr>,
    ## #   air_time <dbl>, distance <dbl>, hour <dbl>, minute <dbl>, time_hour <dttm>

### 특정 문자열 찾아내기

-   starts\_with(‘문자’) : ’문자’로 시작하는 단어 모두 찾기
-   ends\_with(‘문자’) : ’문자’로 끝나는 단어 모두 찾기
-   matches(‘문자’) : ’문자’를 포함하는 단어 모두 찾기
-   contains(‘문자’) : ’문자’를 포함하는 단어 모두 찾기

``` r
select(flights, starts_with('dep'))
```

    ## # A tibble: 336,776 x 2
    ##    dep_time dep_delay
    ##       <int>     <dbl>
    ##  1      517         2
    ##  2      533         4
    ##  3      542         2
    ##  4      544        -1
    ##  5      554        -6
    ##  6      554        -4
    ##  7      555        -5
    ##  8      557        -3
    ##  9      557        -3
    ## 10      558        -2
    ## # ... with 336,766 more rows

``` r
select(flights, ends_with('delay'))
```

    ## # A tibble: 336,776 x 2
    ##    dep_delay arr_delay
    ##        <dbl>     <dbl>
    ##  1         2        11
    ##  2         4        20
    ##  3         2        33
    ##  4        -1       -18
    ##  5        -6       -25
    ##  6        -4        12
    ##  7        -5        19
    ##  8        -3       -14
    ##  9        -3        -8
    ## 10        -2         8
    ## # ... with 336,766 more rows

``` r
select(flights, matches('time'))
```

    ## # A tibble: 336,776 x 6
    ##    dep_time sched_dep_time arr_time sched_arr_time air_time time_hour          
    ##       <int>          <int>    <int>          <int>    <dbl> <dttm>             
    ##  1      517            515      830            819      227 2013-01-01 05:00:00
    ##  2      533            529      850            830      227 2013-01-01 05:00:00
    ##  3      542            540      923            850      160 2013-01-01 05:00:00
    ##  4      544            545     1004           1022      183 2013-01-01 05:00:00
    ##  5      554            600      812            837      116 2013-01-01 06:00:00
    ##  6      554            558      740            728      150 2013-01-01 05:00:00
    ##  7      555            600      913            854      158 2013-01-01 06:00:00
    ##  8      557            600      709            723       53 2013-01-01 06:00:00
    ##  9      557            600      838            846      140 2013-01-01 06:00:00
    ## 10      558            600      753            745      138 2013-01-01 06:00:00
    ## # ... with 336,766 more rows

``` r
select(flights, contains('time'))
```

    ## # A tibble: 336,776 x 6
    ##    dep_time sched_dep_time arr_time sched_arr_time air_time time_hour          
    ##       <int>          <int>    <int>          <int>    <dbl> <dttm>             
    ##  1      517            515      830            819      227 2013-01-01 05:00:00
    ##  2      533            529      850            830      227 2013-01-01 05:00:00
    ##  3      542            540      923            850      160 2013-01-01 05:00:00
    ##  4      544            545     1004           1022      183 2013-01-01 05:00:00
    ##  5      554            600      812            837      116 2013-01-01 06:00:00
    ##  6      554            558      740            728      150 2013-01-01 05:00:00
    ##  7      555            600      913            854      158 2013-01-01 06:00:00
    ##  8      557            600      709            723       53 2013-01-01 06:00:00
    ##  9      557            600      838            846      140 2013-01-01 06:00:00
    ## 10      558            600      753            745      138 2013-01-01 06:00:00
    ## # ... with 336,766 more rows

## Filter

특정 행을 선택해주는 함수

용법 : fliter(dataframe, 조건)

``` r
filter(flights, carrier=='US')
```

    ## # A tibble: 20,536 x 19
    ##     year month   day dep_time sched_dep_time dep_delay arr_time sched_arr_time
    ##    <int> <int> <int>    <int>          <int>     <dbl>    <int>          <int>
    ##  1  2013     1     1      622            630        -8     1017           1014
    ##  2  2013     1     1      627            630        -3     1018           1018
    ##  3  2013     1     1      629            630        -1      824            833
    ##  4  2013     1     1      643            645        -2      837            848
    ##  5  2013     1     1      752            759        -7      955            959
    ##  6  2013     1     1      811            815        -4     1026           1016
    ##  7  2013     1     1      823            825        -2     1019           1024
    ##  8  2013     1     1      908            915        -7     1004           1033
    ##  9  2013     1     1      955           1000        -5     1336           1325
    ## 10  2013     1     1      959           1000        -1     1151           1206
    ## # ... with 20,526 more rows, and 11 more variables: arr_delay <dbl>,
    ## #   carrier <chr>, flight <int>, tailnum <chr>, origin <chr>, dest <chr>,
    ## #   air_time <dbl>, distance <dbl>, hour <dbl>, minute <dbl>, time_hour <dttm>

``` r
filter(flights, month>=3, month<=5)
```

    ## # A tibble: 85,960 x 19
    ##     year month   day dep_time sched_dep_time dep_delay arr_time sched_arr_time
    ##    <int> <int> <int>    <int>          <int>     <dbl>    <int>          <int>
    ##  1  2013     3     1        4           2159       125      318             56
    ##  2  2013     3     1       50           2358        52      526            438
    ##  3  2013     3     1      117           2245       152      223           2354
    ##  4  2013     3     1      454            500        -6      633            648
    ##  5  2013     3     1      505            515       -10      746            810
    ##  6  2013     3     1      521            530        -9      813            827
    ##  7  2013     3     1      537            540        -3      856            850
    ##  8  2013     3     1      541            545        -4     1014           1023
    ##  9  2013     3     1      549            600       -11      639            703
    ## 10  2013     3     1      550            600       -10      747            801
    ## # ... with 85,950 more rows, and 11 more variables: arr_delay <dbl>,
    ## #   carrier <chr>, flight <int>, tailnum <chr>, origin <chr>, dest <chr>,
    ## #   air_time <dbl>, distance <dbl>, hour <dbl>, minute <dbl>, time_hour <dttm>

``` r
filter(flights, month>=3 & month<=5)
```

    ## # A tibble: 85,960 x 19
    ##     year month   day dep_time sched_dep_time dep_delay arr_time sched_arr_time
    ##    <int> <int> <int>    <int>          <int>     <dbl>    <int>          <int>
    ##  1  2013     3     1        4           2159       125      318             56
    ##  2  2013     3     1       50           2358        52      526            438
    ##  3  2013     3     1      117           2245       152      223           2354
    ##  4  2013     3     1      454            500        -6      633            648
    ##  5  2013     3     1      505            515       -10      746            810
    ##  6  2013     3     1      521            530        -9      813            827
    ##  7  2013     3     1      537            540        -3      856            850
    ##  8  2013     3     1      541            545        -4     1014           1023
    ##  9  2013     3     1      549            600       -11      639            703
    ## 10  2013     3     1      550            600       -10      747            801
    ## # ... with 85,950 more rows, and 11 more variables: arr_delay <dbl>,
    ## #   carrier <chr>, flight <int>, tailnum <chr>, origin <chr>, dest <chr>,
    ## #   air_time <dbl>, distance <dbl>, hour <dbl>, minute <dbl>, time_hour <dttm>
…
용법 : arrange(dataframe, column1, column2, … )

해당하는 column 순서대로 오름차순 or 내림차순으로 정렬해줌(default :
오름차순)

내림차순 하는 방법 : desc(columns)

``` r
# year에 대해 오름차순으로 정렬

arrange(flights, year)
```

    ## # A tibble: 336,776 x 19
    ##     year month   day dep_time sched_dep_time dep_delay arr_time sched_arr_time
    ##    <int> <int> <int>    <int>          <int>     <dbl>    <int>          <int>
    ##  1  2013     1     1      517            515         2      830            819
    ##  2  2013     1     1      533            529         4      850            830
    ##  3  2013     1     1      542            540         2      923            850
    ##  4  2013     1     1      544            545        -1     1004           1022
    ##  5  2013     1     1      554            600        -6      812            837
    ##  6  2013     1     1      554            558        -4      740            728
    ##  7  2013     1     1      555            600        -5      913            854
    ##  8  2013     1     1      557            600        -3      709            723
    ##  9  2013     1     1      557            600        -3      838            846
    ## 10  2013     1     1      558            600        -2      753            745
    ## # ... with 336,766 more rows, and 11 more variables: arr_delay <dbl>,
    ## #   carrier <chr>, flight <int>, tailnum <chr>, origin <chr>, dest <chr>,
    ## #   air_time <dbl>, distance <dbl>, hour <dbl>, minute <dbl>, time_hour <dttm>

``` r
# year에 대해 오름차순으로 정렬하고, month에 대해 오름차순으로 정렬한 후, day에 대해 오름차순으로 정렬

arrange(flights, year, month, day)
```

    ## # A tibble: 336,776 x 19
    ##     year month   day dep_time sched_dep_time dep_delay arr_time sched_arr_time
    ##    <int> <int> <int>    <int>          <int>     <dbl>    <int>          <int>
    ##  1  2013     1     1      517            515         2      830            819
    ##  2  2013     1     1      533            529         4      850            830
    ##  3  2013     1     1      542            540         2      923            850
    ##  4  2013     1     1      544            545        -1     1004           1022
    ##  5  2013     1     1      554            600        -6      812            837
    ##  6  2013     1     1      554            558        -4      740            728
    ##  7  2013     1     1      555            600        -5      913            854
    ##  8  2013     1     1      557            600        -3      709            723
    ##  9  2013     1     1      557            600        -3      838            846
    ## 10  2013     1     1      558            600        -2      753            745
    ## # ... with 336,766 more rows, and 11 more variables: arr_delay <dbl>,
    ## #   carrier <chr>, flight <int>, tailnum <chr>, origin <chr>, dest <chr>,
    ## #   air_time <dbl>, distance <dbl>, hour <dbl>, minute <dbl>, time_hour <dttm>

``` r
# year에 대해 오름차순으로 정렬하고, month에 대해 내림차순으로 정렬한 후, day에 대해 오름차순으로 정렬

arrange(flights, year, desc(month), day)
```

    ## # A tibble: 336,776 x 19
    ##     year month   day dep_time sched_dep_time dep_delay arr_time sched_arr_time
    ##    <int> <int> <int>    <int>          <int>     <dbl>    <int>          <int>
    ##  1  2013    12     1       13           2359        14      446            445
    ##  2  2013    12     1       17           2359        18      443            437
    ##  3  2013    12     1      453            500        -7      636            651
    ##  4  2013    12     1      520            515         5      749            808
    ##  5  2013    12     1      536            540        -4      845            850
    ##  6  2013    12     1      540            550       -10     1005           1027
    ##  7  2013    12     1      541            545        -4      734            755
    ##  8  2013    12     1      546            545         1      826            835
    ##  9  2013    12     1      549            600       -11      648            659
    ## 10  2013    12     1      550            600       -10      825            854
    ## # ... with 336,766 more rows, and 11 more variables: arr_delay <dbl>,
    ## #   carrier <chr>, flight <int>, tailnum <chr>, origin <chr>, dest <chr>,
    ## #   air_time <dbl>, distance <dbl>, hour <dbl>, minute <dbl>, time_hour <dttm>
…
dataframe의 열을 추가 or 바꿔주는 함수

용법 : mutate(dataframe, column\_name = 조건)

만약 새로운 column\_name을 사용하였다면, dataframe에 새로운 column이
추가 됨

만약 기존에 있던 column\_name을 사용하였다면, 원래 있던 column의
데이터가 변화됨.

``` r
mutate(flights, new_time = hour+(minute/60))
```

    ## # A tibble: 336,776 x 20
    ##     year month   day dep_time sched_dep_time dep_delay arr_time sched_arr_time
    ##    <int> <int> <int>    <int>          <int>     <dbl>    <int>          <int>
    ##  1  2013     1     1      517            515         2      830            819
    ##  2  2013     1     1      533            529         4      850            830
    ##  3  2013     1     1      542            540         2      923            850
    ##  4  2013     1     1      544            545        -1     1004           1022
    ##  5  2013     1     1      554            600        -6      812            837
    ##  6  2013     1     1      554            558        -4      740            728
    ##  7  2013     1     1      555            600        -5      913            854
    ##  8  2013     1     1      557            600        -3      709            723
    ##  9  2013     1     1      557            600        -3      838            846
    ## 10  2013     1     1      558            600        -2      753            745
    ## # ... with 336,766 more rows, and 12 more variables: arr_delay <dbl>,
    ## #   carrier <chr>, flight <int>, tailnum <chr>, origin <chr>, dest <chr>,
    ## #   air_time <dbl>, distance <dbl>, hour <dbl>, minute <dbl>, time_hour <dttm>,
    ## #   new_time <dbl>

``` r
mutate(flights, hour = hour+(minute/60))
```

    ## # A tibble: 336,776 x 19
    ##     year month   day dep_time sched_dep_time dep_delay arr_time sched_arr_time
    ##    <int> <int> <int>    <int>          <int>     <dbl>    <int>          <int>
    ##  1  2013     1     1      517            515         2      830            819
    ##  2  2013     1     1      533            529         4      850            830
    ##  3  2013     1     1      542            540         2      923            850
    ##  4  2013     1     1      544            545        -1     1004           1022
    ##  5  2013     1     1      554            600        -6      812            837
    ##  6  2013     1     1      554            558        -4      740            728
    ##  7  2013     1     1      555            600        -5      913            854
    ##  8  2013     1     1      557            600        -3      709            723
    ##  9  2013     1     1      557            600        -3      838            846
    ## 10  2013     1     1      558            600        -2      753            745
    ## # ... with 336,766 more rows, and 11 more variables: arr_delay <dbl>,
    ## #   carrier <chr>, flight <int>, tailnum <chr>, origin <chr>, dest <chr>,
    ## #   air_time <dbl>, distance <dbl>, hour <dbl>, minute <dbl>, time_hour <dttm>

### transmute

mutate할 열만 보여주는 함수

``` r
transmute(flights, new_time = hour+(minute/60))
```

    ## # A tibble: 336,776 x 1
    ##    new_time
    ##       <dbl>
    ##  1     5.25
    ##  2     5.48
    ##  3     5.67
    ##  4     5.75
    ##  5     6   
    ##  6     5.97
    ##  7     6   
    ##  8     6   
    ##  9     6   
    ## 10     6   
    ## # ... with 336,766 more rows

``` r
transmute(flights, hour = hour+(minute/60))
```

    ## # A tibble: 336,776 x 1
    ##     hour
    ##    <dbl>
    ##  1  5.25
    ##  2  5.48
    ##  3  5.67
    ##  4  5.75
    ##  5  6   
    ##  6  5.97
    ##  7  6   
    ##  8  6   
    ##  9  6   
    ## 10  6   
    ## # ... with 336,766 more rows
…
